{"data":[{"id":"6kgoj7","url":"https:\/\/wallhaven.cc\/w\/6kgoj7","short_url":"https:\/\/whvn.cc\/6kgoj7","views":2435,"favorites":5,"source":"","purity":"sfw","category":"general","dimension_x":1920,"dimension_y":1280,"resolution":"1920x1280","ratio":"1.5","file_size":1381928,"file_type":"image\/jpeg","created_at":"2019-12-22 19:20:15","colors":["#cccccc","#999999","#424153","#ffffff","#996633"],"path":"https:\/\/w.wallhaven.cc\/full\/6k\/wallhaven-6kgoj7.jpg","thumbs":{"large":"https:\/\/th.wallhaven.cc\/lg\/6k\/6kgoj7.jpg","original":"https:\/\/th.wallhaven.cc\/orig\/6k\/6kgoj7.jpg","small":"https:\/\/th.wallhaven.cc\/small\/6k\/6kgoj7.jpg"}},{"id":"4v2mg5","url":"https:\/\/wallhaven.cc\/w\/4v2mg5","short_url":"https:\/\/whvn.cc\/4v2mg5","views":1429,"favorites":1,"source":"","purity":"sfw","category":"general","dimension_x":3888,"dimension_y":2592,"resolution":"3888x2592","ratio":"1.5","file_size":1302186,"file_type":"image\/jpeg","created_at":"2015-02-21 01:59:44","colors":["#424153","#999999","#660000","#663300","#000000"],"path":"https:\/\/w.wallhaven.cc\/full\/4v\/wallhaven-4v2mg5.jpg","thumbs":{"large":"https:\/\/th.wallhaven.cc\/lg\/4v\/4v2mg5.jpg","original":"https:\/\/th.wallhaven.cc\/orig\/4v\/4v2mg5.jpg","small":"https:\/\/th.wallhaven.cc\/small\/4v\/4v2mg5.jpg"}},{"id":"nrdwxm","url":"https:\/\/wallhaven.cc\/w\/nrdwxm","short_url":"https:\/\/whvn.cc\/nrdwxm","views":1832,"favorites":3,"source":"","purity":"sfw","category":"general","dimension_x":1920,"dimension_y":1080,"resolution":"1920x1080","ratio":"1.78","file_size":396707,"file_type":"image\/jpeg","created_at":"2014-10-02 12:51:57","colors":["#999999","#424153","#e7d8b1","#000000","#996633"],"path":"https:\/\/w.wallhaven.cc\/full\/nr\/wallhaven-nrdwxm.jpg","thumbs":{"large":"https:\/\/th.wallhaven.cc\/lg\/nr\/nrdwxm.jpg","original":"https:\/\/th.wallhaven.cc\/orig\/nr\/nrdwxm.jpg","small":"https:\/\/th.wallhaven.cc\/small\/nr\/nrdwxm.jpg"}},{"id":"lmpqzl","url":"https:\/\/wallhaven.cc\/w\/lmpqzl","short_url":"https:\/\/whvn.cc\/lmpqzl","views":1046,"favorites":1,"source":"","purity":"sfw","category":"general","dimension_x":4000,"dimension_y":2664,"resolution":"4000x2664","ratio":"1.5","file_size":7152430,"file_type":"image\/jpeg","created_at":"2020-03-26 17:07:23","colors":["#cccccc","#000000","#424153","#999999","#ffffff"],"path":"https:\/\/w.wallhaven.cc\/full\/lm\/wallhaven-lmpqzl.jpg","thumbs":{"large":"https:\/\/th.wallhaven.cc\/lg\/lm\/lmpqzl.jpg","original":"https:\/\/th.wallhaven.cc\/orig\/lm\/lmpqzl.jpg","small":"https:\/\/th.wallhaven.cc\/small\/lm\/lmpqzl.jpg"}},{"id":"qd8xzl","url":"https:\/\/wallhaven.cc\/w\/qd8xzl","short_url":"https:\/\/whvn.cc\/qd8xzl","views":1966,"favorites":4,"source":"","purity":"sfw","category":"general","dimension_x":5120,"dimension_y":2880,"resolution":"5120x2880","ratio":"1.78","file_size":5099875,"file_type":"image\/jpeg","created_at":"2017-08-23 14:27:37","colors":["#999999","#424153","#000000","#cc6633","#996633"],"path":"https:\/\/w.wallhaven.cc\/full\/qd\/wallhaven-qd8xzl.jpg","thumbs":{"large":"https:\/\/th.wallhaven.cc\/lg\/qd\/qd8xzl.jpg","original":"https:\/\/th.wallhaven.cc\/orig\/qd\/qd8xzl.jpg","small":"https:\/\/th.wallhaven.cc\/small\/qd\/qd8xzl.jpg"}},{"id":"j81dvw","url":"https:\/\/wallhaven.cc\/w\/j81dvw","short_url":"https:\/\/whvn.cc\/j81dvw","views":1350,"favorites":1,"source":"the crew","purity":"sfw","category":"general","dimension_x":4096,"dimension_y":2160,"resolution":"4096x2160","ratio":"1.9","file_size":695030,"file_type":"image\/jpeg","created_at":"2016-09-19 16:10:04","colors":["#424153","#999999","#000000","#cccccc","#abbcda"],"path":"https:\/\/w.wallhaven.cc\/full\/j8\/wallhaven-j81dvw.jpg","thumbs":{"large":"https:\/\/th.wallhaven.cc\/lg\/j8\/j81dvw.jpg","original":"https:\/\/th.wallhaven.cc\/orig\/j8\/j81dvw.jpg","small":"https:\/\/th.wallhaven.cc\/small\/j8\/j81dvw.jpg"}},{"id":"ne7evr","url":"https:\/\/wallhaven.cc\/w\/ne7evr","short_url":"https:\/\/whvn.cc\/ne7evr","views":1800,"favorites":5,"source":"","purity":"sfw","category":"general","dimension_x":1920,"dimension_y":1080,"resolution":"1920x1080","ratio":"1.78","file_size":826009,"file_type":"image\/jpeg","created_at":"2014-10-01 13:26:14","colors":["#999999","#996633","#ffffff","#424153","#cccccc"],"path":"https:\/\/w.wallhaven.cc\/full\/ne\/wallhaven-ne7evr.jpg","thumbs":{"large":"https:\/\/th.wallhaven.cc\/lg\/ne\/ne7evr.jpg","original":"https:\/\/th.wallhaven.cc\/orig\/ne\/ne7evr.jpg","small":"https:\/\/th.wallhaven.cc\/small\/ne\/ne7evr.jpg"}},{"id":"d5xr9j","url":"https:\/\/wallhaven.cc\/w\/d5xr9j","short_url":"https:\/\/whvn.cc\/d5xr9j","views":1691,"favorites":9,"source":"","purity":"sfw","category":"general","dimension_x":1920,"dimension_y":1080,"resolution":"1920x1080","ratio":"1.78","file_size":464009,"file_type":"image\/jpeg","created_at":"2016-03-06 18:02:30","colors":["#ffffff","#999999","#cccccc","#424153","#000000"],"path":"https:\/\/w.wallhaven.cc\/full\/d5\/wallhaven-d5xr9j.jpg","thumbs":{"large":"https:\/\/th.wallhaven.cc\/lg\/d5\/d5xr9j.jpg","original":"https:\/\/th.wallhaven.cc\/orig\/d5\/d5xr9j.jpg","small":"https:\/\/th.wallhaven.cc\/small\/d5\/d5xr9j.jpg"}},{"id":"n6oqgx","url":"https:\/\/wallhaven.cc\/w\/n6oqgx","short_url":"https:\/\/whvn.cc\/n6oqgx","views":2410,"favorites":3,"source":"","purity":"sfw","category":"general","dimension_x":1920,"dimension_y":1080,"resolution":"1920x1080","ratio":"1.78","file_size":477725,"file_type":"image\/jpeg","created_at":"2014-09-29 00:01:01","colors":["#000000","#424153","#ffffff","#abbcda","#cccccc"],"path":"https:\/\/w.wallhaven.cc\/full\/n6\/wallhaven-n6oqgx.jpg","thumbs":{"large":"https:\/\/th.wallhaven.cc\/lg\/n6\/n6oqgx.jpg","original":"https:\/\/th.wallhaven.cc\/orig\/n6\/n6oqgx.jpg","small":"https:\/\/th.wallhaven.cc\/small\/n6\/n6oqgx.jpg"}},{"id":"47r8l3","url":"https:\/\/wallhaven.cc\/w\/47r8l3","short_url":"https:\/\/whvn.cc\/47r8l3","views":2021,"favorites":5,"source":"","purity":"sfw","category":"general","dimension_x":1920,"dimension_y":1080,"resolution":"1920x1080","ratio":"1.78","file_size":286662,"file_type":"image\/jpeg","created_at":"2014-12-28 18:54:42","colors":["#cccccc","#ffffff","#999999","#424153","#000000"],"path":"https:\/\/w.wallhaven.cc\/full\/47\/wallhaven-47r8l3.jpg","thumbs":{"large":"https:\/\/th.wallhaven.cc\/lg\/47\/47r8l3.jpg","original":"https:\/\/th.wallhaven.cc\/orig\/47\/47r8l3.jpg","small":"https:\/\/th.wallhaven.cc\/small\/47\/47r8l3.jpg"}},{"id":"3kkoq9","url":"https:\/\/wallhaven.cc\/w\/3kkoq9","short_url":"https:\/\/whvn.cc\/3kkoq9","views":1767,"favorites":7,"source":"","purity":"sfw","category":"general","dimension_x":2560,"dimension_y":1600,"resolution":"2560x1600","ratio":"1.6","file_size":1139653,"file_type":"image\/jpeg","created_at":"2016-03-09 11:50:11","colors":["#424153","#996633","#999999","#663300","#000000"],"path":"https:\/\/w.wallhaven.cc\/full\/3k\/wallhaven-3kkoq9.jpg","thumbs":{"large":"https:\/\/th.wallhaven.cc\/lg\/3k\/3kkoq9.jpg","original":"https:\/\/th.wallhaven.cc\/orig\/3k\/3kkoq9.jpg","small":"https:\/\/th.wallhaven.cc\/small\/3k\/3kkoq9.jpg"}},{"id":"4dpeej","url":"https:\/\/wallhaven.cc\/w\/4dpeej","short_url":"https:\/\/whvn.cc\/4dpeej","views":2467,"favorites":4,"source":"","purity":"sfw","category":"general","dimension_x":1920,"dimension_y":1080,"resolution":"1920x1080","ratio":"1.78","file_size":228361,"file_type":"image\/jpeg","created_at":"2014-10-01 13:14:37","colors":["#ffffff","#424153","#999999","#cccccc","#000000"],"path":"https:\/\/w.wallhaven.cc\/full\/4d\/wallhaven-4dpeej.jpg","thumbs":{"large":"https:\/\/th.wallhaven.cc\/lg\/4d\/4dpeej.jpg","original":"https:\/\/th.wallhaven.cc\/orig\/4d\/4dpeej.jpg","small":"https:\/\/th.wallhaven.cc\/small\/4d\/4dpeej.jpg"}},{"id":"nkpdyq","url":"https:\/\/wallhaven.cc\/w\/nkpdyq","short_url":"https:\/\/whvn.cc\/nkpdyq","views":2091,"favorites":3,"source":"","purity":"sfw","category":"general","dimension_x":2560,"dimension_y":1440,"resolution":"2560x1440","ratio":"1.78","file_size":399745,"file_type":"image\/jpeg","created_at":"2015-12-31 12:32:42","colors":["#cccccc","#999999","#424153","#ffffff","#000000"],"path":"https:\/\/w.wallhaven.cc\/full\/nk\/wallhaven-nkpdyq.jpg","thumbs":{"large":"https:\/\/th.wallhaven.cc\/lg\/nk\/nkpdyq.jpg","original":"https:\/\/th.wallhaven.cc\/orig\/nk\/nkpdyq.jpg","small":"https:\/\/th.wallhaven.cc\/small\/nk\/nkpdyq.jpg"}},{"id":"4odzjm","url":"https:\/\/wallhaven.cc\/w\/4odzjm","short_url":"https:\/\/whvn.cc\/4odzjm","views":2400,"favorites":2,"source":"","purity":"sfw","category":"general","dimension_x":3888,"dimension_y":2592,"resolution":"3888x2592","ratio":"1.5","file_size":1608913,"file_type":"image\/jpeg","created_at":"2014-09-18 21:46:59","colors":["#996633","#e7d8b1","#424153","#663300","#cc6633"],"path":"https:\/\/w.wallhaven.cc\/full\/4o\/wallhaven-4odzjm.jpg","thumbs":{"large":"https:\/\/th.wallhaven.cc\/lg\/4o\/4odzjm.jpg","original":"https:\/\/th.wallhaven.cc\/orig\/4o\/4odzjm.jpg","small":"https:\/\/th.wallhaven.cc\/small\/4o\/4odzjm.jpg"}},{"id":"w8qm8x","url":"https:\/\/wallhaven.cc\/w\/w8qm8x","short_url":"https:\/\/whvn.cc\/w8qm8x","views":1846,"favorites":0,"source":"","purity":"sfw","category":"general","dimension_x":1920,"dimension_y":1080,"resolution":"1920x1080","ratio":"1.78","file_size":2482088,"file_type":"image\/png","created_at":"2016-05-17 19:08:47","colors":["#424153","#000000","#999999","#996633","#663300"],"path":"https:\/\/w.wallhaven.cc\/full\/w8\/wallhaven-w8qm8x.png","thumbs":{"large":"https:\/\/th.wallhaven.cc\/lg\/w8\/w8qm8x.jpg","original":"https:\/\/th.wallhaven.cc\/orig\/w8\/w8qm8x.jpg","small":"https:\/\/th.wallhaven.cc\/small\/w8\/w8qm8x.jpg"}},{"id":"457mm1","url":"https:\/\/wallhaven.cc\/w\/457mm1","short_url":"https:\/\/whvn.cc\/457mm1","views":2437,"favorites":5,"source":"","purity":"sfw","category":"general","dimension_x":1920,"dimension_y":1080,"resolution":"1920x1080","ratio":"1.78","file_size":161383,"file_type":"image\/jpeg","created_at":"2014-10-01 16:49:36","colors":["#ffffff","#cccccc","#000000","#424153","#999999"],"path":"https:\/\/w.wallhaven.cc\/full\/45\/wallhaven-457mm1.jpg","thumbs":{"large":"https:\/\/th.wallhaven.cc\/lg\/45\/457mm1.jpg","original":"https:\/\/th.wallhaven.cc\/orig\/45\/457mm1.jpg","small":"https:\/\/th.wallhaven.cc\/small\/45\/457mm1.jpg"}},{"id":"4289yx","url":"https:\/\/wallhaven.cc\/w\/4289yx","short_url":"https:\/\/whvn.cc\/4289yx","views":1779,"favorites":3,"source":"","purity":"sfw","category":"general","dimension_x":1920,"dimension_y":1080,"resolution":"1920x1080","ratio":"1.78","file_size":325971,"file_type":"image\/jpeg","created_at":"2014-10-01 13:05:36","colors":["#abbcda","#000000","#996633","#999999","#424153"],"path":"https:\/\/w.wallhaven.cc\/full\/42\/wallhaven-4289yx.jpg","thumbs":{"large":"https:\/\/th.wallhaven.cc\/lg\/42\/4289yx.jpg","original":"https:\/\/th.wallhaven.cc\/orig\/42\/4289yx.jpg","small":"https:\/\/th.wallhaven.cc\/small\/42\/4289yx.jpg"}},{"id":"mpedw9","url":"https:\/\/wallhaven.cc\/w\/mpedw9","short_url":"https:\/\/whvn.cc\/mpedw9","views":2283,"favorites":2,"source":"","purity":"sfw","category":"anime","dimension_x":1920,"dimension_y":1080,"resolution":"1920x1080","ratio":"1.78","file_size":971890,"file_type":"image\/jpeg","created_at":"2017-10-02 16:10:02","colors":["#424153","#999999","#abbcda","#ffffff","#e7d8b1"],"path":"https:\/\/w.wallhaven.cc\/full\/mp\/wallhaven-mpedw9.jpg","thumbs":{"large":"https:\/\/th.wallhaven.cc\/lg\/mp\/mpedw9.jpg","original":"https:\/\/th.wallhaven.cc\/orig\/mp\/mpedw9.jpg","small":"https:\/\/th.wallhaven.cc\/small\/mp\/mpedw9.jpg"}},{"id":"4l3kxr","url":"https:\/\/wallhaven.cc\/w\/4l3kxr","short_url":"https:\/\/whvn.cc\/4l3kxr","views":1731,"favorites":2,"source":"","purity":"sfw","category":"general","dimension_x":1920,"dimension_y":1080,"resolution":"1920x1080","ratio":"1.78","file_size":595128,"file_type":"image\/jpeg","created_at":"2014-10-01 13:41:12","colors":["#424153","#999999","#000000","#333399","#996633"],"path":"https:\/\/w.wallhaven.cc\/full\/4l\/wallhaven-4l3kxr.jpg","thumbs":{"large":"https:\/\/th.wallhaven.cc\/lg\/4l\/4l3kxr.jpg","original":"https:\/\/th.wallhaven.cc\/orig\/4l\/4l3kxr.jpg","small":"https:\/\/th.wallhaven.cc\/small\/4l\/4l3kxr.jpg"}},{"id":"0wqdl7","url":"https:\/\/wallhaven.cc\/w\/0wqdl7","short_url":"https:\/\/whvn.cc\/0wqdl7","views":2029,"favorites":6,"source":"","purity":"sfw","category":"general","dimension_x":1920,"dimension_y":1080,"resolution":"1920x1080","ratio":"1.78","file_size":256073,"file_type":"image\/jpeg","created_at":"2014-10-01 16:44:29","colors":["#ffffff","#424153","#999999","#000000","#cccccc"],"path":"https:\/\/w.wallhaven.cc\/full\/0w\/wallhaven-0wqdl7.jpg","thumbs":{"large":"https:\/\/th.wallhaven.cc\/lg\/0w\/0wqdl7.jpg","original":"https:\/\/th.wallhaven.cc\/orig\/0w\/0wqdl7.jpg","small":"https:\/\/th.wallhaven.cc\/small\/0w\/0wqdl7.jpg"}},{"id":"qdxj17","url":"https:\/\/wallhaven.cc\/w\/qdxj17","short_url":"https:\/\/whvn.cc\/qdxj17","views":1886,"favorites":0,"source":"","purity":"sfw","category":"general","dimension_x":1920,"dimension_y":1080,"resolution":"1920x1080","ratio":"1.78","file_size":707084,"file_type":"image\/jpeg","created_at":"2018-01-08 14:55:22","colors":["#cccccc","#ffffff","#424153","#999999","#000000"],"path":"https:\/\/w.wallhaven.cc\/full\/qd\/wallhaven-qdxj17.jpg","thumbs":{"large":"https:\/\/th.wallhaven.cc\/lg\/qd\/qdxj17.jpg","original":"https:\/\/th.wallhaven.cc\/orig\/qd\/qdxj17.jpg","small":"https:\/\/th.wallhaven.cc\/small\/qd\/qdxj17.jpg"}},{"id":"6qj8ex","url":"https:\/\/wallhaven.cc\/w\/6qj8ex","short_url":"https:\/\/whvn.cc\/6qj8ex","views":2127,"favorites":10,"source":"","purity":"sfw","category":"general","dimension_x":1920,"dimension_y":1080,"resolution":"1920x1080","ratio":"1.78","file_size":266707,"file_type":"image\/jpeg","created_at":"2016-03-06 08:04:30","colors":["#000000","#e7d8b1","#cccc33","#999999","#ffffff"],"path":"https:\/\/w.wallhaven.cc\/full\/6q\/wallhaven-6qj8ex.jpg","thumbs":{"large":"https:\/\/th.wallhaven.cc\/lg\/6q\/6qj8ex.jpg","original":"https:\/\/th.wallhaven.cc\/orig\/6q\/6qj8ex.jpg","small":"https:\/\/th.wallhaven.cc\/small\/6q\/6qj8ex.jpg"}},{"id":"4gpj7q","url":"https:\/\/wallhaven.cc\/w\/4gpj7q","short_url":"https:\/\/whvn.cc\/4gpj7q","views":2816,"favorites":4,"source":"","purity":"sfw","category":"general","dimension_x":1920,"dimension_y":1080,"resolution":"1920x1080","ratio":"1.78","file_size":2278533,"file_type":"image\/png","created_at":"2014-10-07 00:54:05","colors":["#000000","#424153","#999999","#996633","#e7d8b1"],"path":"https:\/\/w.wallhaven.cc\/full\/4g\/wallhaven-4gpj7q.png","thumbs":{"large":"https:\/\/th.wallhaven.cc\/lg\/4g\/4gpj7q.jpg","original":"https:\/\/th.wallhaven.cc\/orig\/4g\/4gpj7q.jpg","small":"https:\/\/th.wallhaven.cc\/small\/4g\/4gpj7q.jpg"}},{"id":"43z6e9","url":"https:\/\/wallhaven.cc\/w\/43z6e9","short_url":"https:\/\/whvn.cc\/43z6e9","views":1644,"favorites":2,"source":"","purity":"sfw","category":"general","dimension_x":1920,"dimension_y":1080,"resolution":"1920x1080","ratio":"1.78","file_size":330187,"file_type":"image\/jpeg","created_at":"2014-10-01 16:59:49","colors":["#424153","#996633","#999999","#000000","#660000"],"path":"https:\/\/w.wallhaven.cc\/full\/43\/wallhaven-43z6e9.jpg","thumbs":{"large":"https:\/\/th.wallhaven.cc\/lg\/43\/43z6e9.jpg","original":"https:\/\/th.wallhaven.cc\/orig\/43\/43z6e9.jpg","small":"https:\/\/th.wallhaven.cc\/small\/43\/43z6e9.jpg"}}],"meta":{"current_page":1,"last_page":13856,"per_page":24,"total":332534,"query":"","seed":null}}